1_RTL/5_SEQ_LOGIC/4_SHIFT_REGISTER/xmsim.log
xmsim(64): 22.03-s012: (c) Copyright 1995-2023 Cadence Design Systems, Inc.
TOOL:	xmsim(64)	22.03-s012: Started on Jul 06, 2026 at 22:52:15 KST
xmsim
    -MESS
    tb_shift_register_sipo
    -gui

xmsim: *W,NOMTDGUI: Multi-Threaded Dumping is disabled for interactive debug mode.

-------------------------------------
Relinquished control to SimVision...
xcelium> 
xcelium> database -open waves -into waves.shm -default
Created default SHM database waves
xcelium> probe -create -shm tb_shift_register_sipo.clk tb_shift_register_sipo.rst_n tb_shift_register_sipo.i_serial_in tb_shift_register_sipo.o_parallel_out
Created probe 1
xcelium> run
time=0 | serial_in=0 | parallel_out=0  0
time=15000 | serial_in=1 | parallel_out=0  0
time=30000 | serial_in=1 | parallel_out=1  0
time=35000 | serial_in=1 | parallel_out=1  1
time=45000 | serial_in=1 | parallel_out=1  3
time=55000 | serial_in=1 | parallel_out=1  7
time=65000 | serial_in=1 | parallel_out=1 15
time=75000 | serial_in=1 | parallel_out=1 31
time=85000 | serial_in=1 | parallel_out=1 63
time=90000 | serial_in=1 | parallel_out=0 63
time=95000 | serial_in=1 | parallel_out=0126
time=100000 | serial_in=1 | parallel_out=1126
time=105000 | serial_in=1 | parallel_out=1253
time=115000 | serial_in=1 | parallel_out=1251
time=120000 | serial_in=1 | parallel_out=0251
time=125000 | serial_in=1 | parallel_out=0246
time=130000 | serial_in=1 | parallel_out=1246
time=135000 | serial_in=1 | parallel_out=1237
time=145000 | serial_in=1 | parallel_out=1219
time=150000 | serial_in=1 | parallel_out=0219
time=155000 | serial_in=1 | parallel_out=0182
time=160000 | serial_in=1 | parallel_out=1182
time=165000 | serial_in=1 | parallel_out=1109
time=170000 | serial_in=1 | parallel_out=0109
time=175000 | serial_in=1 | parallel_out=0218
time=185000 | serial_in=1 | parallel_out=0180
time=195000 | serial_in=1 | parallel_out=0104
time=205000 | serial_in=1 | parallel_out=0208
time=215000 | serial_in=1 | parallel_out=0160
Simulation complete via $finish(1) at time 220 NS + 0
./tb_shift_register_sipo.v:32 	#50 $finish;
xcelium> ^C
xcelium> exit
TOOL:	xmsim(64)	22.03-s012: Exiting on Jul 06, 2026 at 22:54:04 KST  (total: 00:01:49)
